\relax 
\providecommand\hyper@newdestlabel[2]{}
\providecommand*\new@tpo@label[2]{}
\catcode `"\active 
\bibstyle{natdin}
\providecommand\HyperFirstAtBeginDocument{\AtBeginDocument}
\HyperFirstAtBeginDocument{\ifx\hyper@anchor\@undefined
\global\let\oldcontentsline\contentsline
\gdef\contentsline#1#2#3#4{\oldcontentsline{#1}{#2}{#3}}
\global\let\oldnewlabel\newlabel
\gdef\newlabel#1#2{\newlabelxx{#1}#2}
\gdef\newlabelxx#1#2#3#4#5#6{\oldnewlabel{#1}{{#2}{#3}}}
\AtEndDocument{\ifx\hyper@anchor\@undefined
\let\contentsline\oldcontentsline
\let\newlabel\oldnewlabel
\fi}
\fi}
\global\let\hyper@last\relax 
\gdef\HyperFirstAtBeginDocument#1{#1}
\providecommand\HyField@AuxAddToFields[1]{}
\providecommand\HyField@AuxAddToCoFields[2]{}
\select@language{ngerman}
\@writefile{toc}{\select@language{ngerman}}
\@writefile{lof}{\select@language{ngerman}}
\@writefile{lot}{\select@language{ngerman}}
\gdef \LT@i {\LT@entry 
    {1}{78.2738pt}\LT@entry 
    {5}{248.00774pt}\LT@entry 
    {5}{56.66455pt}}
\@writefile{toc}{\contentsline {chapter}{\nonumberline Symbolverzeichnis}{IV}{chapter*.2}}
\@writefile{lof}{\addvspace {10\p@ }}
\@writefile{lot}{\addvspace {10\p@ }}
\@writefile{lol}{\addvspace {10\p@ }}
\gdef \LT@ii {\LT@entry 
    {1}{78.2738pt}\LT@entry 
    {5}{230.518pt}\LT@entry 
    {1}{3.98996pt}}
\gdef \LT@iii {\LT@entry 
    {1}{78.2738pt}\LT@entry 
    {5}{65.21942pt}\LT@entry 
    {1}{3.98996pt}}
\citation{Waermeatlas2013}
\@writefile{toc}{\contentsline {chapter}{Abbildungsverzeichnis}{VI}{chapter*.6}}
\citation{Beckmann2016}
\citation{Beckmann2016}
\@writefile{toc}{\contentsline {chapter}{Tabellenverzeichnis}{VII}{chapter*.7}}
\@writefile{toc}{\contentsline {chapter}{\numberline {1}Einleitung}{1}{chapter.1}}
\@writefile{lof}{\addvspace {10\p@ }}
\@writefile{lot}{\addvspace {10\p@ }}
\@writefile{lol}{\addvspace {10\p@ }}
\@writefile{toc}{\contentsline {section}{\numberline {1.1}Motivation}{1}{section.1.1}}
\@writefile{toc}{\contentsline {section}{\numberline {1.2}Aufgabenstellung}{1}{section.1.2}}
\@writefile{toc}{\contentsline {section}{\numberline {1.3}Zielstellung}{2}{section.1.3}}
\citation{Elsner1993}
\@writefile{toc}{\contentsline {chapter}{\numberline {2}Theoretische Grundlagen von W\"arme\"ubertragern}{3}{chapter.2}}
\@writefile{lof}{\addvspace {10\p@ }}
\@writefile{lot}{\addvspace {10\p@ }}
\@writefile{lol}{\addvspace {10\p@ }}
\@writefile{toc}{\contentsline {section}{\numberline {2.1}Bauformen von W\"arme\"ubertragern: Einordnung des Trockenk\"uhlers}{3}{section.2.1}}
\@writefile{toc}{\contentsline {subsection}{\numberline {2.1.1}Einteilung nach der thermischen Auslegung}{3}{subsection.2.1.1}}
\citation{Elsner1993}
\@writefile{toc}{\contentsline {subsection}{\numberline {2.1.2}Einteilung nach der Stofftrennung}{4}{subsection.2.1.2}}
\@writefile{toc}{\contentsline {subsection}{\numberline {2.1.3}Einteilung nach der Stromf\"uhrung}{4}{subsection.2.1.3}}
\@writefile{toc}{\contentsline {subsection}{\numberline {2.1.4}Einordnung des Trockenk\"uhlers}{4}{subsection.2.1.4}}
\@writefile{lot}{\contentsline {table}{\numberline {\relax 2.1}{\ignorespaces Einordnung des Trockenk\"uhlers\relax }}{5}{table.caption.8}}
\providecommand*\caption@xref[2]{\@setref\relax\@undefined{#1}}
\newlabel{tab_einteilung}{{\relax 2.1}{5}{Einordnung des Trockenkühlers\relax }{table.caption.8}{}}
\@writefile{toc}{\contentsline {subsection}{\numberline {2.1.5}adiabate Fahrweise des Trockenk\"uhlers}{5}{subsection.2.1.5}}
\@writefile{toc}{\contentsline {subsection}{\numberline {2.1.6}Generelle Annahmen und Bezeichnungen f\"ur den Trockenk\"uhler}{6}{subsection.2.1.6}}
\@writefile{toc}{\contentsline {subsection}{\numberline {2.1.7}Temperaturverlauf im Trockenk\"uhler}{6}{subsection.2.1.7}}
\@writefile{lof}{\contentsline {figure}{\numberline {\relax 2.1}{\ignorespaces schematische Darstellung von Gleichstrom- (links) und Gegenstromw\"arme\"ubertrager (rechts) mit Temperatur-Fl\"achen-Schaubildern f\"ur verschiedene Kapazit\"atsstr\"ome (rote Linie: $\vartheta _1$, blaue Linie: $\vartheta _2$), gestrichelte schwarze Linie: Temperatur im Unendlichen\relax }}{7}{figure.caption.9}}
\newlabel{abb_bf_str\"ome}{{\relax 2.1}{7}{schematische Darstellung von Gleichstrom- (links) und Gegenstromwärmeübertrager (rechts) mit Temperatur-Flächen-Schaubildern für verschiedene Kapazitätsströme (rote Linie: $\vartheta _1$, blaue Linie: $\vartheta _2$), gestrichelte schwarze Linie: Temperatur im Unendlichen\relax }{figure.caption.9}{}}
\citation{Baehr2012}
\citation{Baehr2013}
\@writefile{toc}{\contentsline {section}{\numberline {2.2}Literaturrecherche}{8}{section.2.2}}
\newlabel{herleitung}{{2.2}{8}{Literaturrecherche}{section.2.2}{}}
\citation{Beckmann2016}
\citation{Boeckh2011}
\citation{Bosnjakovic1951}
\citation{Bosnjakovic1997}
\citation{Elsner1993}
\citation{Herwig2006}
\citation{Langeheinecke2016}
\citation{PolifkeKopitz2009}
\citation{Stephan2013}
\citation{Waermeatlas2013}
\citation{Wagner1990}
\citation{Beckmann2016}
\@writefile{toc}{\contentsline {subsection}{\numberline {2.2.1}Methode A: Ausgleichstemperatur}{10}{subsection.2.2.1}}
\newlabel{adiabat}{{2.2.1}{11}{Methode A: Ausgleichstemperatur}{subsection.2.2.1}{}}
\@writefile{toc}{\contentsline {subsubsection}{\nonumberline Herleitung der Differentialgleichung}{11}{section*.10}}
\@writefile{lof}{\contentsline {figure}{\numberline {\relax 2.2}{\ignorespaces Querschnittselement eines Gleichstromw\"arme\"ubertragers\relax }}{11}{figure.caption.11}}
\newlabel{abb_at_qse}{{\relax 2.2}{11}{Querschnittselement eines Gleichstromwärmeübertragers\relax }{figure.caption.11}{}}
\newlabel{gl_at_eb}{{\relax 2.1}{11}{Herleitung der Differentialgleichung}{equation.2.2.1}{}}
\newlabel{gl_at_kzgl}{{\relax 2.2}{11}{Herleitung der Differentialgleichung}{equation.2.2.2}{}}
\newlabel{gl_at_wd}{{\relax 2.3}{11}{Herleitung der Differentialgleichung}{equation.2.2.3}{}}
\newlabel{gl_at_ks}{{\relax 2.4}{12}{Herleitung der Differentialgleichung}{equation.2.2.4}{}}
\newlabel{gl_at_eb1}{{\relax 2.5}{12}{Herleitung der Differentialgleichung}{equation.2.2.5}{}}
\newlabel{gl_at_eb2}{{\relax 2.6}{12}{Herleitung der Differentialgleichung}{equation.2.2.6}{}}
\@writefile{toc}{\contentsline {subsubsection}{\nonumberline Allgemeiner Fall}{12}{section*.12}}
\newlabel{gl_at_enthal}{{\relax 2.7}{12}{Allgemeiner Fall}{equation.2.2.7}{}}
\newlabel{gl_at_t2enthal}{{\relax 2.8}{12}{Allgemeiner Fall}{equation.2.2.8}{}}
\newlabel{gl_at_dgl1}{{\relax 2.9}{12}{Allgemeiner Fall}{equation.2.2.9}{}}
\newlabel{gl_at_dgltdv}{{\relax 2.10}{12}{Allgemeiner Fall}{equation.2.2.10}{}}
\newlabel{gl_at_t1i}{{\relax 2.11}{12}{Allgemeiner Fall}{equation.2.2.11}{}}
\citation{Beckmann2016}
\newlabel{gl_at_t2i}{{\relax 2.12}{13}{Allgemeiner Fall}{equation.2.2.12}{}}
\@writefile{lot}{\contentsline {table}{\numberline {\relax 2.2}{\ignorespaces vorgegebene Temperaturen f\"ur die unterschiedenen Randbedingungen f\"ur Gleich- und Gegenstromf\"uhrung\relax }}{13}{table.caption.13}}
\newlabel{tab_at_randbed}{{\relax 2.2}{13}{vorgegebene Temperaturen für die unterschiedenen Randbedingungen für Gleich- und Gegenstromführung\relax }{table.caption.13}{}}
\newlabel{gl_at_ik1}{{\relax 2.13}{13}{Allgemeiner Fall}{equation.2.2.13}{}}
\newlabel{gl_at_ik2}{{\relax 2.14}{13}{Allgemeiner Fall}{equation.2.2.14}{}}
\newlabel{gl_at_lsg1}{{\relax 2.15}{13}{Allgemeiner Fall}{equation.2.2.15}{}}
\newlabel{gl_at_lsg2}{{\relax 2.16}{13}{Allgemeiner Fall}{equation.2.2.16}{}}
\citation{Beckmann2016}
\citation{Beckmann2016}
\newlabel{gl_at_at}{{\relax 2.17}{14}{Allgemeiner Fall}{equation.2.2.17}{}}
\newlabel{gl_at_Theta}{{\relax 2.18}{14}{Allgemeiner Fall}{equation.2.2.18}{}}
\newlabel{gl_at_Omega}{{\relax 2.19}{14}{Allgemeiner Fall}{equation.2.2.19}{}}
\newlabel{gl_at_St}{{\relax 2.20}{14}{Allgemeiner Fall}{equation.2.2.20}{}}
\newlabel{gl_at_Sti}{{\relax 2.21}{14}{Allgemeiner Fall}{equation.2.2.21}{}}
\newlabel{gl_at_Theta_dgl}{{\relax 2.22}{14}{Allgemeiner Fall}{equation.2.2.22}{}}
\@writefile{lot}{\contentsline {table}{\numberline {\relax 2.3}{\ignorespaces Fallunterscheidung nach gegebenen Temperaturen nach Prof. B\fakesc  {eckmann} \cite  {Beckmann2016}, Seite 11\relax }}{15}{table.caption.14}}
\newlabel{tab_at_f\"alle}{{\relax 2.3}{15}{Fallunterscheidung nach gegebenen Temperaturen nach Prof. B\fakesc {eckmann} \cite {Beckmann2016}, Seite 11\relax }{table.caption.14}{}}
\@writefile{toc}{\contentsline {subsubsection}{\nonumberline Sonderfall: gleichgro\IeC {\ss }e Kapazit\"atsstr\"ome im Gegenstrom}{15}{section*.15}}
\newlabel{gl_at_sf}{{\relax 2.23}{15}{Sonderfall: gleichgroße Kapazitätsströme im Gegenstrom}{equation.2.2.23}{}}
\newlabel{gl_at_sf_v}{{\relax 2.24}{15}{Sonderfall: gleichgroße Kapazitätsströme im Gegenstrom}{equation.2.2.24}{}}
\newlabel{gl_at_sf_lsg}{{\relax 2.25}{15}{Sonderfall: gleichgroße Kapazitätsströme im Gegenstrom}{equation.2.2.25}{}}
\citation{Beckmann2016}
\citation{Beckmann2016}
\newlabel{gl_at_sf_lsg1}{{\relax 2.26}{16}{Sonderfall: gleichgroße Kapazitätsströme im Gegenstrom}{equation.2.2.26}{}}
\newlabel{gl_at_sf_lsg2}{{\relax 2.27}{16}{Sonderfall: gleichgroße Kapazitätsströme im Gegenstrom}{equation.2.2.27}{}}
\newlabel{gl_at_sf_ik3}{{\relax 2.28}{16}{Sonderfall: gleichgroße Kapazitätsströme im Gegenstrom}{equation.2.2.28}{}}
\newlabel{gl_at_sf_ik4}{{\relax 2.29}{16}{Sonderfall: gleichgroße Kapazitätsströme im Gegenstrom}{equation.2.2.29}{}}
\newlabel{gl_at_sf_t1}{{\relax 2.30}{16}{Sonderfall: gleichgroße Kapazitätsströme im Gegenstrom}{equation.2.2.30}{}}
\newlabel{gl_at_sf_t2}{{\relax 2.31}{16}{Sonderfall: gleichgroße Kapazitätsströme im Gegenstrom}{equation.2.2.31}{}}
\newlabel{gl_at_Theta_sf}{{\relax 2.32}{16}{Sonderfall: gleichgroße Kapazitätsströme im Gegenstrom}{equation.2.2.32}{}}
\citation{PolifkeKopitz2009}
\citation{Bosnjakovic1997}
\@writefile{lot}{\contentsline {table}{\numberline {\relax 2.4}{\ignorespaces Fallunterscheidung nach gegebenen Temperaturen nach Prof. B\fakesc  {eckmann}\cite  {Beckmann2016}, Seite 11\relax }}{17}{table.caption.16}}
\newlabel{tab_at_f\"alle_sf}{{\relax 2.4}{17}{Fallunterscheidung nach gegebenen Temperaturen nach Prof. B\fakesc {eckmann}\cite {Beckmann2016}, Seite 11\relax }{table.caption.16}{}}
\@writefile{toc}{\contentsline {subsection}{\numberline {2.2.2}Methode B: Betriebscharakteristik}{17}{subsection.2.2.2}}
\newlabel{bc}{{2.2.2}{17}{Methode B: Betriebscharakteristik}{subsection.2.2.2}{}}
\newlabel{kstrom}{{2.2.2}{17}{Methode B: Betriebscharakteristik}{subsection.2.2.2}{}}
\citation{Bosnjakovic1997}
\citation{Bosnjakovic1997}
\newlabel{gl_bc_Phi}{{\relax 2.33}{18}{Methode B: Betriebscharakteristik}{equation.2.2.33}{}}
\newlabel{gl_bc_N}{{\relax 2.34}{18}{Methode B: Betriebscharakteristik}{equation.2.2.34}{}}
\newlabel{gl_bc_R}{{\relax 2.35}{18}{Methode B: Betriebscharakteristik}{equation.2.2.35}{}}
\newlabel{gl_bc_dgl}{{\relax 2.36}{18}{Methode B: Betriebscharakteristik}{equation.2.2.36}{}}
\newlabel{gl_bc_idt}{{\relax 2.37}{18}{Methode B: Betriebscharakteristik}{equation.2.2.37}{}}
\newlabel{gl_bc_Phi1}{{\relax 2.38}{18}{Methode B: Betriebscharakteristik}{equation.2.2.38}{}}
\citation{Bosnjakovic1997}
\citation{Bosnjakovic1997}
\citation{Waermeatlas2013}
\citation{Waermeatlas2013}
\citation{Waermeatlas2013}
\newlabel{gl_bc_Phi2}{{\relax 2.39}{19}{Methode B: Betriebscharakteristik}{equation.2.2.39}{}}
\newlabel{gl_bc_Phi_gleich}{{\relax 2.40}{19}{Methode B: Betriebscharakteristik}{equation.2.2.40}{}}
\newlabel{gl_bc_Phi_gegen}{{\relax 2.41}{19}{Methode B: Betriebscharakteristik}{equation.2.2.41}{}}
\newlabel{gl_bc_Phi_gegen2}{{\relax 2.42}{19}{Methode B: Betriebscharakteristik}{equation.2.2.42}{}}
\newlabel{gl_bc_1}{{\relax 2.43}{19}{Methode B: Betriebscharakteristik}{equation.2.2.43}{}}
\newlabel{gl_bc_2}{{\relax 2.44}{19}{Methode B: Betriebscharakteristik}{equation.2.2.44}{}}
\newlabel{gl_bc_3}{{\relax 2.45}{19}{Methode B: Betriebscharakteristik}{equation.2.2.45}{}}
\newlabel{gl_bc_4}{{\relax 2.46}{19}{Methode B: Betriebscharakteristik}{equation.2.2.46}{}}
\newlabel{gl_bc_5}{{\relax 2.47}{19}{Methode B: Betriebscharakteristik}{equation.2.2.47}{}}
\citation{PolifkeKopitz2009}
\@writefile{lof}{\contentsline {figure}{\numberline {\relax 2.3}{\ignorespaces Arbeitsdiagramm des reinen Gegenstroms aus dem VDI-W\"armeatlas\cite  {Waermeatlas2013}, Seite 23; Abweichungen von der Notation: P: Betriebscharakteristik $\Phi $, NTU: \"Ubertragungszahl $N$\relax }}{20}{figure.caption.17}}
\newlabel{abb_bc_diagramm}{{\relax 2.3}{20}{Arbeitsdiagramm des reinen Gegenstroms aus dem VDI-Wärmeatlas\cite {Waermeatlas2013}, Seite 23; Abweichungen von der Notation: P: Betriebscharakteristik $\Phi $, NTU: Übertragungszahl $N$\relax }{figure.caption.17}{}}
\@writefile{toc}{\contentsline {subsection}{\numberline {2.2.3}Methode C: Mittlere logarithmische Temperaturdifferenz}{20}{subsection.2.2.3}}
\@writefile{toc}{\contentsline {subsubsection}{\nonumberline Herleitung}{20}{section*.18}}
\newlabel{gl_mlt_mt}{{\relax 2.48}{20}{Herleitung}{equation.2.2.48}{}}
\newlabel{gl_mlt_q}{{\relax 2.49}{20}{Herleitung}{equation.2.2.49}{}}
\newlabel{gl_mlt_dt}{{\relax 2.50}{21}{Herleitung}{equation.2.2.50}{}}
\newlabel{gl_mlt_dgl}{{\relax 2.51}{21}{Herleitung}{equation.2.2.51}{}}
\newlabel{gl_mlt_lsg}{{\relax 2.52}{21}{Herleitung}{equation.2.2.52}{}}
\newlabel{gl_mlt_dt1}{{\relax 2.53}{21}{Herleitung}{equation.2.2.53}{}}
\newlabel{gl_mlt_dt2}{{\relax 2.54}{21}{Herleitung}{equation.2.2.54}{}}
\newlabel{gl_mlt_lsg1}{{\relax 2.55}{21}{Herleitung}{equation.2.2.55}{}}
\newlabel{gl_mlt_eb}{{\relax 2.56}{21}{Herleitung}{equation.2.2.56}{}}
\newlabel{gl_mlt_c1}{{\relax 2.57}{21}{Herleitung}{equation.2.2.57}{}}
\newlabel{gl_mlt_c2}{{\relax 2.58}{21}{Herleitung}{equation.2.2.58}{}}
\newlabel{gl_mlt_lsg2}{{\relax 2.59}{21}{Herleitung}{equation.2.2.59}{}}
\citation{PolifkeKopitz2009}
\newlabel{gl_mlt_mlt}{{\relax 2.60}{22}{Herleitung}{equation.2.2.60}{}}
\newlabel{gl_mlt_mlt2}{{\relax 2.61}{22}{Herleitung}{equation.2.2.61}{}}
\newlabel{gl_mlt_sf1}{{\relax 2.62}{22}{Herleitung}{equation.2.2.62}{}}
\newlabel{gl_mlt_sf2}{{\relax 2.63}{22}{Herleitung}{equation.2.2.63}{}}
\newlabel{gl_mlt_sf3}{{\relax 2.64}{22}{Herleitung}{equation.2.2.64}{}}
\@writefile{toc}{\contentsline {subsubsection}{\nonumberline Umsetzung f\"ur die Berechnungsf\"alle}{22}{section*.19}}
\newlabel{gl_mlt_it1}{{\relax 2.65}{22}{Umsetzung für die Berechnungsfälle}{equation.2.2.65}{}}
\citation{PolifkeKopitz2009}
\newlabel{gl_mlt_it2}{{\relax 2.66}{23}{Umsetzung für die Berechnungsfälle}{equation.2.2.66}{}}
\newlabel{gl_mlt_it3}{{\relax 2.67}{23}{Umsetzung für die Berechnungsfälle}{equation.2.2.67}{}}
\newlabel{gl_mlt_it4}{{\relax 2.68}{23}{Umsetzung für die Berechnungsfälle}{equation.2.2.68}{}}
\@writefile{lot}{\contentsline {table}{\numberline {\relax 2.5}{\ignorespaces Grenzwerte f\"ur die iterative Berechnung des Nachrechnungsfalls mit der mittleren logarithmischen Temperaturdifferenz\relax }}{23}{table.caption.20}}
\newlabel{tab_mlt_grenzen}{{\relax 2.5}{23}{Grenzwerte für die iterative Berechnung des Nachrechnungsfalls mit der mittleren logarithmischen Temperaturdifferenz\relax }{table.caption.20}{}}
\newlabel{gl_mlt_it6}{{\relax 2.69}{23}{Umsetzung für die Berechnungsfälle}{equation.2.2.69}{}}
\newlabel{gl_mlt_it7}{{\relax 2.70}{23}{Umsetzung für die Berechnungsfälle}{equation.2.2.70}{}}
\newlabel{gl_mlt_it8}{{\relax 2.71}{24}{Umsetzung für die Berechnungsfälle}{equation.2.2.71}{}}
\newlabel{gl_mlt_besf1}{{\relax 2.72}{24}{Umsetzung für die Berechnungsfälle}{equation.2.2.72}{}}
\newlabel{gl_mlt_besf2}{{\relax 2.73}{24}{Umsetzung für die Berechnungsfälle}{equation.2.2.73}{}}
\newlabel{gl_mlt_be1}{{\relax 2.74}{24}{Umsetzung für die Berechnungsfälle}{equation.2.2.74}{}}
\newlabel{gl_mlt_be2}{{\relax 2.75}{24}{Umsetzung für die Berechnungsfälle}{equation.2.2.75}{}}
\newlabel{gl_mlt_be3}{{\relax 2.76}{24}{Umsetzung für die Berechnungsfälle}{equation.2.2.76}{}}
\newlabel{gl_mlt_be4}{{\relax 2.77}{24}{Umsetzung für die Berechnungsfälle}{equation.2.2.77}{}}
\newlabel{gl_mlt_be5}{{\relax 2.78}{24}{Umsetzung für die Berechnungsfälle}{equation.2.2.78}{}}
\newlabel{gl_mlt_be6}{{\relax 2.79}{25}{Umsetzung für die Berechnungsfälle}{equation.2.2.79}{}}
\@writefile{toc}{\contentsline {subsection}{\numberline {2.2.4}Vergleich der Berechnungsmethoden}{25}{subsection.2.2.4}}
\@writefile{toc}{\contentsline {subsubsection}{\nonumberline Umformung der Berechnungsmethoden ineinander}{25}{section*.21}}
\citation{Bosnjakovic1997}
\@writefile{toc}{\contentsline {paragraph}{\nonumberline Ausgleichstemperatur zu Betriebscharakteristik}{26}{section*.22}}
\newlabel{gl_vgl_1}{{\relax 2.80}{26}{Ausgleichstemperatur zu Betriebscharakteristik}{equation.2.2.80}{}}
\newlabel{gl_vgl_2}{{\relax 2.81}{26}{Ausgleichstemperatur zu Betriebscharakteristik}{equation.2.2.81}{}}
\newlabel{gl_vgl_3}{{\relax 2.82}{26}{Ausgleichstemperatur zu Betriebscharakteristik}{equation.2.2.82}{}}
\newlabel{gl_vgl_4}{{\relax 2.83}{26}{Ausgleichstemperatur zu Betriebscharakteristik}{equation.2.2.83}{}}
\@writefile{toc}{\contentsline {paragraph}{\nonumberline Betriebscharakteristik zur mittleren logarithmischen Temperaturdifferenz}{26}{section*.23}}
\newlabel{gl_vgl_5}{{\relax 2.84}{27}{Betriebscharakteristik zur mittleren logarithmischen Temperaturdifferenz}{equation.2.2.84}{}}
\newlabel{gl_vgl_6}{{\relax 2.85}{27}{Betriebscharakteristik zur mittleren logarithmischen Temperaturdifferenz}{equation.2.2.85}{}}
\newlabel{gl_vgl_7}{{\relax 2.86}{27}{Betriebscharakteristik zur mittleren logarithmischen Temperaturdifferenz}{equation.2.2.86}{}}
\newlabel{gl_vgl_8}{{\relax 2.87}{27}{Betriebscharakteristik zur mittleren logarithmischen Temperaturdifferenz}{equation.2.2.87}{}}
\@writefile{toc}{\contentsline {section}{\numberline {2.3}Plausibilit\"atskontrollen}{27}{section.2.3}}
\newlabel{plausibilit\"at}{{2.3}{27}{Plausibilitätskontrollen}{section.2.3}{}}
\@writefile{toc}{\contentsline {subsection}{\numberline {2.3.1}Energiebilanz}{28}{subsection.2.3.1}}
\@writefile{lof}{\contentsline {figure}{\numberline {\relax 2.4}{\ignorespaces Bilanzr\"aume am Beispiel des Gleichstromw\"arme\"ubertragers\relax }}{29}{figure.caption.24}}
\newlabel{abb_pl_eb}{{\relax 2.4}{29}{Bilanzräume am Beispiel des Gleichstromwärmeübertragers\relax }{figure.caption.24}{}}
\newlabel{gl_eb_1}{{\relax 2.88}{29}{Energiebilanz}{equation.2.3.88}{}}
\newlabel{gl_eb_2}{{\relax 2.89}{29}{Energiebilanz}{equation.2.3.89}{}}
\newlabel{gl_eb_ges}{{\relax 2.90}{29}{Energiebilanz}{equation.2.3.90}{}}
\@writefile{toc}{\contentsline {chapter}{\numberline {3}Umsetzung in Berechnungsprogramme}{30}{chapter.3}}
\@writefile{lof}{\addvspace {10\p@ }}
\@writefile{lot}{\addvspace {10\p@ }}
\@writefile{lol}{\addvspace {10\p@ }}
\newlabel{programm}{{3}{30}{Umsetzung in Berechnungsprogramme}{chapter.3}{}}
\@writefile{toc}{\contentsline {section}{\numberline {3.1}Anforderungen und Form der Berechnungsprogramme}{30}{section.3.1}}
\@writefile{lot}{\contentsline {table}{\numberline {\relax 3.1}{\ignorespaces Anforderungen an die Berechnungsprogramme\relax }}{30}{table.caption.25}}
\newlabel{tab_anforderungen}{{\relax 3.1}{30}{Anforderungen an die Berechnungsprogramme\relax }{table.caption.25}{}}
\citation{IAPWS2007}
\citation{Bach2013}
\@writefile{toc}{\contentsline {subsection}{\numberline {3.1.1}Auslegungsprogramm f\"ur E\&S Planbau}{31}{subsection.3.1.1}}
\citation{Bach2013}
\@writefile{toc}{\contentsline {subsection}{\numberline {3.1.2}Modul W\"arme\"ubertrager f\"ur ProcessExcel}{32}{subsection.3.1.2}}
\@writefile{toc}{\contentsline {section}{\numberline {3.2}Umsetzung der Berechnungsmethoden}{33}{section.3.2}}
\newlabel{gl_cpm}{{\relax 3.1}{33}{Umsetzung der Berechnungsmethoden}{equation.3.2.1}{}}
\@writefile{toc}{\contentsline {subsection}{\numberline {3.2.1}Nachrechnungsfall}{34}{subsection.3.2.1}}
\@writefile{toc}{\contentsline {subsubsection}{\nonumberline Methode A: Ausgleichstemperatur}{34}{section*.27}}
\newlabel{gl_at_be1}{{\relax 3.2}{34}{Methode A: Ausgleichstemperatur}{equation.3.2.2}{}}
\@writefile{toc}{\contentsline {subsubsection}{\nonumberline Methode B: Betriebscharakteristik}{34}{section*.28}}
\@writefile{lof}{\contentsline {figure}{\numberline {\relax 3.1}{\ignorespaces schematischer Ablauf der Berechnung f\"ur den Nachrechnungsfall\relax }}{35}{figure.caption.26}}
\newlabel{schema_nachrechnung}{{\relax 3.1}{35}{schematischer Ablauf der Berechnung für den Nachrechnungsfall\relax }{figure.caption.26}{}}
\@writefile{lof}{\contentsline {figure}{\numberline {\relax 3.2}{\ignorespaces schematischer Ablauf der Berechnung f\"ur die Auslegungsf\"alle\relax }}{36}{figure.caption.29}}
\newlabel{schema_auslegung}{{\relax 3.2}{36}{schematischer Ablauf der Berechnung für die Auslegungsfälle\relax }{figure.caption.29}{}}
\newlabel{gl_bc_be1}{{\relax 3.3}{36}{Methode B: Betriebscharakteristik}{equation.3.2.3}{}}
\newlabel{gl_bc_be2}{{\relax 3.4}{36}{Methode B: Betriebscharakteristik}{equation.3.2.4}{}}
\@writefile{toc}{\contentsline {subsection}{\numberline {3.2.2}Auslegungsf\"alle}{36}{subsection.3.2.2}}
\newlabel{gl_at_be2}{{\relax 3.5}{37}{Auslegungsfälle}{equation.3.2.5}{}}
\@writefile{toc}{\contentsline {subsubsection}{\nonumberline Methode A: Ausgleichstemperatur}{37}{section*.30}}
\newlabel{gl_at_be3}{{\relax 3.6}{37}{Methode A: Ausgleichstemperatur}{equation.3.2.6}{}}
\newlabel{gl_at_be4}{{\relax 3.7}{37}{Methode A: Ausgleichstemperatur}{equation.3.2.7}{}}
\@writefile{toc}{\contentsline {subsubsection}{\nonumberline Methode B: Betriebscharakteristik}{37}{section*.31}}
\newlabel{gl_bc_be4}{{\relax 3.8}{37}{Methode B: Betriebscharakteristik}{equation.3.2.8}{}}
\newlabel{gl_bc_be5}{{\relax 3.9}{37}{Methode B: Betriebscharakteristik}{equation.3.2.9}{}}
\newlabel{gl_bc_be6}{{\relax 3.10}{37}{Methode B: Betriebscharakteristik}{equation.3.2.10}{}}
\newlabel{gl_bc_be7}{{\relax 3.11}{38}{Methode B: Betriebscharakteristik}{equation.3.2.11}{}}
\citation{PolifkeKopitz2009}
\@writefile{toc}{\contentsline {chapter}{\numberline {4}Ergebnisse}{39}{chapter.4}}
\@writefile{lof}{\addvspace {10\p@ }}
\@writefile{lot}{\addvspace {10\p@ }}
\@writefile{lol}{\addvspace {10\p@ }}
\@writefile{toc}{\contentsline {section}{\numberline {4.1}Vergleich der Ergebnisse untereinander}{39}{section.4.1}}
\@writefile{lot}{\contentsline {table}{\numberline {\relax 4.1}{\ignorespaces Validierungsmatrix f\"ur den Nachrechnungsfall\relax }}{40}{table.caption.32}}
\newlabel{tab_vm_nachr}{{\relax 4.1}{40}{Validierungsmatrix für den Nachrechnungsfall\relax }{table.caption.32}{}}
\@writefile{lot}{\contentsline {table}{\numberline {\relax 4.2}{\ignorespaces Validierungsmatrix f\"ur den Auslegungsfall mit Temperaturvorgabe\relax }}{40}{table.caption.33}}
\newlabel{tab_vm_ausl1}{{\relax 4.2}{40}{Validierungsmatrix für den Auslegungsfall mit Temperaturvorgabe\relax }{table.caption.33}{}}
\@writefile{lot}{\contentsline {table}{\numberline {\relax 4.3}{\ignorespaces Validierungsmatrix f\"ur den Auslegungsfall bei W\"armestromvorgabe\relax }}{41}{table.caption.34}}
\newlabel{tab_vm_ausl2}{{\relax 4.3}{41}{Validierungsmatrix für den Auslegungsfall bei Wärmestromvorgabe\relax }{table.caption.34}{}}
\@writefile{lot}{\contentsline {table}{\numberline {\relax 4.4}{\ignorespaces maximaler Betrag der Abweichungen der Berechnungsergebnisse der Validierungsmatrizen, getrennt nach Berechnungsf\"allen und Stromf\"uhrungsarten\relax }}{41}{table.caption.35}}
\newlabel{tab_vm_erg}{{\relax 4.4}{41}{maximaler Betrag der Abweichungen der Berechnungsergebnisse der Validierungsmatrizen, getrennt nach Berechnungsfällen und Stromführungsarten\relax }{table.caption.35}{}}
\@writefile{lof}{\contentsline {figure}{\numberline {\relax 4.1}{\ignorespaces Einfluss der \"Ubertragerfl\"ache auf die Austrittstemperatur des hei\IeC {\ss }en Stroms, berechnet f\"ur $\vartheta _1' = \SI  {50}{\ensuremath  {\SI@fstyle  {\no@qsk  \ensuremath  {^{\circ }}}}C}$, $\vartheta _1'-\vartheta _2' = \SI  {30}{K}$ und $R_1=0.5$\relax }}{43}{figure.caption.36}}
\newlabel{abb_dia_A}{{\relax 4.1}{43}{Einfluss der Übertragerfläche auf die Austrittstemperatur des heißen Stroms, berechnet für $\vartheta _1' = \SI {50}{\degree C}$, $\vartheta _1'-\vartheta _2' = \SI {30}{K}$ und $R_1=0.5$\relax }{figure.caption.36}{}}
\@writefile{lof}{\contentsline {figure}{\numberline {\relax 4.2}{\ignorespaces Einfluss des Kapazit\"atsstromverh\"altnisses auf die Austrittstemperatur des hei\IeC {\ss }en Stroms, berechnet f\"ur $\vartheta _1' = \SI  {50}{\ensuremath  {\SI@fstyle  {\no@qsk  \ensuremath  {^{\circ }}}}C}$, $\vartheta _1'-\vartheta _2' = \SI  {30}{K}$ und $A=\SI  {10}{m^2}$\relax }}{43}{figure.caption.37}}
\newlabel{abb_dia_R}{{\relax 4.2}{43}{Einfluss des Kapazitätsstromverhältnisses auf die Austrittstemperatur des heißen Stroms, berechnet für $\vartheta _1' = \SI {50}{\degree C}$, $\vartheta _1'-\vartheta _2' = \SI {30}{K}$ und $A=\SI {10}{m^2}$\relax }{figure.caption.37}{}}
\@writefile{toc}{\contentsline {section}{\numberline {4.2}Einfluss der temperaturabh\"angigen W\"armekapazit\"aten}{44}{section.4.2}}
\newlabel{w\"armekapazit\"aten}{{4.2}{44}{Einfluss der temperaturabhängigen Wärmekapazitäten}{section.4.2}{}}
\newlabel{w\"armekapazit\"at}{{4.2}{44}{Einfluss der temperaturabhängigen Wärmekapazitäten}{table.caption.41}{}}
\@writefile{lot}{\contentsline {table}{\numberline {\relax 4.5}{\ignorespaces \"Ubersicht \"uber die Nachrechnungsf\"alle f\"ur die \"Uberpr\"ufung des Einflusses der temperaturabh\"angigen W\"armekapazit\"aten\relax }}{45}{table.caption.38}}
\newlabel{tab_vgl_f\"alle}{{\relax 4.5}{45}{Übersicht über die Nachrechnungsfälle für die Überprüfung des Einflusses der temperaturabhängigen Wärmekapazitäten\relax }{table.caption.38}{}}
\@writefile{lot}{\contentsline {table}{\numberline {\relax 4.6}{\ignorespaces Ergebnisse der \"Uberpr\"ufung des Einflusses der temperaturabh\"angigen W\"armekapazit\"aten f\"ur den Gleichstrom\relax }}{45}{table.caption.39}}
\newlabel{tab_vgl_erggl}{{\relax 4.6}{45}{Ergebnisse der Überprüfung des Einflusses der temperaturabhängigen Wärmekapazitäten für den Gleichstrom\relax }{table.caption.39}{}}
\@writefile{lot}{\contentsline {table}{\numberline {\relax 4.7}{\ignorespaces Ergebnisse der \"Uberpr\"ufung des Einflusses der temperaturabh\"angigen W\"armekapazit\"aten f\"ur den Gegenstrom\relax }}{46}{table.caption.40}}
\newlabel{tab_vgl_ergge}{{\relax 4.7}{46}{Ergebnisse der Überprüfung des Einflusses der temperaturabhängigen Wärmekapazitäten für den Gegenstrom\relax }{table.caption.40}{}}
\@writefile{lot}{\contentsline {table}{\numberline {\relax 4.8}{\ignorespaces W\"armekapazit\"aten von Wasser und Luft (Berechnungsparameter nach Tabelle \ref  {tab_vgl_f\"alle}, berechnet mit dem Stoffwerteprogramm von Erik Bach\relax }}{46}{table.caption.41}}
\newlabel{tab_cp}{{\relax 4.8}{46}{Wärmekapazitäten von Wasser und Luft (Berechnungsparameter nach Tabelle \ref {tab_vgl_fälle}, berechnet mit dem Stoffwerteprogramm von Erik Bach\relax }{table.caption.41}{}}
\@writefile{toc}{\contentsline {chapter}{\numberline {5}Zusammenfassung und Ausblick}{47}{chapter.5}}
\@writefile{lof}{\addvspace {10\p@ }}
\@writefile{lot}{\addvspace {10\p@ }}
\@writefile{lol}{\addvspace {10\p@ }}
\@writefile{toc}{\contentsline {section}{\numberline {5.1}Fazit}{47}{section.5.1}}
\@writefile{toc}{\contentsline {section}{\numberline {5.2}Ausblick}{48}{section.5.2}}
\bibdata{bibliographie/literatur}
\bibcite{Bach2013}{{1}{2013}{{Bach}}{{}}}
\bibcite{Baehr2012}{{2}{2012}{{Baehr u. Kabelac}}{{}}}
\bibcite{Baehr2013}{{3}{2013}{{Baehr u. Stephan}}{{}}}
\bibcite{Beckmann2016}{{4}{2016}{{Beckmann}}{{}}}
\bibcite{Boeckh2011}{{5}{2011}{{B\"ockh u. Wetzel}}{{}}}
\bibcite{Bosnjakovic1997}{{6}{1997}{{Bo\v {s}njakovi\'{c} u. Knoche}}{{}}}
\bibcite{Bosnjakovic1951}{{7}{1951}{{Bo\v {s}njakovi\'{c} u.\tmspace  +\thinmuskip {.1667em}a.}}{{Bo\v {s}njakovi\'{c}, Vili\v {c}i\'{c}, u. Slipcevi\'{c}}}}
\bibcite{Elsner1993}{{8}{1993}{{Elsner u.\tmspace  +\thinmuskip {.1667em}a.}}{{Elsner, Fiscger, Huhn, u. J\"org}}}
\bibcite{Herwig2006}{{9}{2006}{{Herwig}}{{}}}
\bibcite{Langeheinecke2016}{{10}{2006}{{Langeheinecke, Klaus}}{{}}}
\bibcite{PolifkeKopitz2009}{{11}{2009}{{Polifke u. Kopitz}}{{}}}
\bibcite{Stephan2013}{{12}{2013}{{Stephan}}{{}}}
\bibcite{IAPWS2007}{{13}{2007}{{The International Association for the Properties of Water and Steam}}{{}}}
\@writefile{toc}{\contentsline {chapter}{Literaturverzeichnis}{49}{chapter*.42}}
\bibcite{Waermeatlas2013}{{14}{2013}{{Verein Deutscher Ingenieure}}{{}}}
\bibcite{Wagner1990}{{15}{1990}{{Wagner}}{{}}}
\@writefile{toc}{\contentsline {chapter}{\nonumberline Selbstst\"andigkeitserkl\"arung}{51}{chapter*.43}}
\@writefile{lof}{\addvspace {10\p@ }}
\@writefile{lot}{\addvspace {10\p@ }}
\@writefile{lol}{\addvspace {10\p@ }}
\global\@namedef{scr@dte@chapter@lastmaxnumwidth}{10.25992pt}
\global\@namedef{scr@dte@section@lastmaxnumwidth}{21.13972pt}
\global\@namedef{scr@dte@subsection@lastmaxnumwidth}{30.93964pt}
